<?xml version="1.0" encoding="UTF-8"?>
<glyph name="afii10051" format="1">
  <advance width="763"/>
  <unicode hex="0402"/>
  <outline>
    <contour>
      <point x="477" y="-170" type="qcurve"/>
      <point x="470" y="-166"/>
      <point x="465" y="-155" type="qcurve" smooth="yes"/>
      <point x="464" y="-151"/>
      <point x="463" y="-140"/>
      <point x="464" y="-140" type="qcurve" smooth="yes"/>
      <point x="622" y="-45"/>
      <point x="622" y="150" type="qcurve" smooth="yes"/>
      <point x="622" y="242"/>
      <point x="539" y="349"/>
      <point x="472" y="349" type="qcurve" smooth="yes"/>
      <point x="426" y="349"/>
      <point x="377" y="332" type="qcurve"/>
      <point x="377" y="139" type="line" smooth="yes"/>
      <point x="377" y="81"/>
      <point x="386" y="46" type="qcurve" smooth="yes"/>
      <point x="388" y="39"/>
      <point x="440" y="26"/>
      <point x="450" y="26" type="qcurve" smooth="yes"/>
      <point x="453" y="26"/>
      <point x="453" y="11" type="qcurve" smooth="yes"/>
      <point x="453" y="3"/>
      <point x="451" y="-3" type="qcurve"/>
      <point x="351" y="2"/>
      <point x="336" y="2" type="qcurve" smooth="yes"/>
      <point x="331" y="2"/>
      <point x="216" y="-3" type="qcurve"/>
      <point x="212" y="1"/>
      <point x="212" y="12" type="qcurve" smooth="yes"/>
      <point x="212" y="26"/>
      <point x="216" y="26" type="qcurve" smooth="yes"/>
      <point x="229" y="26"/>
      <point x="279" y="38"/>
      <point x="282" y="46" type="qcurve" smooth="yes"/>
      <point x="290" y="72"/>
      <point x="290" y="135" type="qcurve" smooth="yes"/>
      <point x="290" y="496" type="line" smooth="yes"/>
      <point x="290" y="583"/>
      <point x="280" y="600" type="qcurve"/>
      <point x="274" y="615"/>
      <point x="173" y="615" type="qcurve" smooth="yes"/>
      <point x="116" y="615"/>
      <point x="75" y="582"/>
      <point x="61" y="526" type="qcurve" smooth="yes"/>
      <point x="60" y="521"/>
      <point x="51" y="521" type="qcurve" smooth="yes"/>
      <point x="34" y="521"/>
      <point x="27" y="528" type="qcurve"/>
      <point x="46" y="670" type="line"/>
      <point x="86" y="660"/>
      <point x="115" y="660" type="qcurve" smooth="yes"/>
      <point x="153" y="660"/>
      <point x="290" y="656"/>
      <point x="334" y="656" type="qcurve" smooth="yes"/>
      <point x="377" y="656"/>
      <point x="516" y="660"/>
      <point x="554" y="660" type="qcurve" smooth="yes"/>
      <point x="584" y="660"/>
      <point x="622" y="670" type="qcurve"/>
      <point x="642" y="528" type="line"/>
      <point x="635" y="521"/>
      <point x="618" y="521" type="qcurve" smooth="yes"/>
      <point x="609" y="521"/>
      <point x="608" y="526" type="qcurve" smooth="yes"/>
      <point x="593" y="582"/>
      <point x="553" y="615"/>
      <point x="495" y="615" type="qcurve" smooth="yes"/>
      <point x="390" y="615"/>
      <point x="386" y="600" type="qcurve" smooth="yes"/>
      <point x="377" y="568"/>
      <point x="377" y="499" type="qcurve" smooth="yes"/>
      <point x="377" y="367" type="line"/>
      <point x="450" y="397"/>
      <point x="510" y="397" type="qcurve" smooth="yes"/>
      <point x="606" y="397"/>
      <point x="718" y="259"/>
      <point x="718" y="158" type="qcurve" smooth="yes"/>
      <point x="718" y="36"/>
      <point x="575" y="-131"/>
    </contour>
  </outline>
</glyph>
