<?xml version="1.0" encoding="UTF-8"?>
<glyph name="Eogonek" format="1">
  <advance width="612"/>
  <unicode hex="0118"/>
  <outline>
    <contour>
      <point x="171" y="656" type="qcurve" smooth="yes"/>
      <point x="216" y="656"/>
      <point x="438" y="660"/>
      <point x="494" y="660" type="qcurve"/>
      <point x="498" y="631"/>
      <point x="521" y="536"/>
      <point x="523" y="524" type="qcurve"/>
      <point x="518" y="519"/>
      <point x="492" y="519"/>
      <point x="491" y="526" type="qcurve" smooth="yes"/>
      <point x="476" y="581"/>
      <point x="422" y="612"/>
      <point x="375" y="612" type="qcurve" smooth="yes"/>
      <point x="308" y="612" type="line" smooth="yes"/>
      <point x="222" y="612"/>
      <point x="220" y="599" type="qcurve" smooth="yes"/>
      <point x="215" y="575"/>
      <point x="215" y="515" type="qcurve" smooth="yes"/>
      <point x="215" y="355" type="line" smooth="yes"/>
      <point x="215" y="349"/>
      <point x="258" y="349" type="qcurve" smooth="yes"/>
      <point x="311" y="349" type="line" smooth="yes"/>
      <point x="364" y="349"/>
      <point x="392" y="357"/>
      <point x="400" y="359"/>
      <point x="413" y="383"/>
      <point x="415" y="394"/>
      <point x="421" y="417" type="qcurve" smooth="yes"/>
      <point x="422" y="424"/>
      <point x="436" y="424" type="qcurve" smooth="yes"/>
      <point x="448" y="424"/>
      <point x="453" y="419" type="qcurve"/>
      <point x="453" y="230" type="line"/>
      <point x="449" y="226"/>
      <point x="437" y="226" type="qcurve" smooth="yes"/>
      <point x="424" y="226"/>
      <point x="421" y="234" type="qcurve" smooth="yes"/>
      <point x="414" y="261"/>
      <point x="404" y="288"/>
      <point x="399" y="293"/>
      <point x="393" y="297" type="qcurve" smooth="yes"/>
      <point x="380" y="305"/>
      <point x="287" y="305" type="qcurve" smooth="yes"/>
      <point x="215" y="305"/>
      <point x="215" y="296" type="qcurve" smooth="yes"/>
      <point x="215" y="141" type="line" smooth="yes"/>
      <point x="215" y="76"/>
      <point x="224" y="50" type="qcurve" smooth="yes"/>
      <point x="227" y="40"/>
      <point x="292" y="40" type="qcurve" smooth="yes"/>
      <point x="340" y="40" type="line" smooth="yes"/>
      <point x="433" y="40"/>
      <point x="466" y="57" type="qcurve" smooth="yes"/>
      <point x="481" y="65"/>
      <point x="518" y="120"/>
      <point x="529" y="158" type="qcurve" smooth="yes"/>
      <point x="530" y="164"/>
      <point x="543" y="164" type="qcurve" smooth="yes"/>
      <point x="562" y="164"/>
      <point x="568" y="158" type="qcurve"/>
      <point x="564" y="147"/>
      <point x="533" y="65"/>
      <point x="517" y="14"/>
      <point x="514" y="-6" type="qcurve"/>
      <point x="472" y="-6"/>
      <point x="387" y="-88"/>
      <point x="387" y="-122" type="qcurve" smooth="yes"/>
      <point x="387" y="-138"/>
      <point x="405" y="-165"/>
      <point x="428" y="-165" type="qcurve" smooth="yes"/>
      <point x="450" y="-165"/>
      <point x="488" y="-146"/>
      <point x="508" y="-127"/>
      <point x="509" y="-127" type="qcurve" smooth="yes"/>
      <point x="513" y="-127"/>
      <point x="513" y="-153"/>
      <point x="509" y="-158" type="qcurve" smooth="yes"/>
      <point x="459" y="-224"/>
      <point x="404" y="-224" type="qcurve" smooth="yes"/>
      <point x="367" y="-224"/>
      <point x="333" y="-174"/>
      <point x="333" y="-147" type="qcurve" smooth="yes"/>
      <point x="333" y="-111"/>
      <point x="394" y="-35"/>
      <point x="437" y="-5" type="qcurve"/>
      <point x="204" y="0"/>
      <point x="173" y="0" type="qcurve" smooth="yes"/>
      <point x="52" y="-3" type="line"/>
      <point x="49" y="0"/>
      <point x="49" y="26"/>
      <point x="52" y="26" type="qcurve" smooth="yes"/>
      <point x="65" y="26"/>
      <point x="116" y="40"/>
      <point x="121" y="49" type="qcurve" smooth="yes"/>
      <point x="128" y="61"/>
      <point x="128" y="143" type="qcurve" smooth="yes"/>
      <point x="128" y="521" type="line" smooth="yes"/>
      <point x="128" y="580"/>
      <point x="121" y="607" type="qcurve" smooth="yes"/>
      <point x="118" y="615"/>
      <point x="65" y="629"/>
      <point x="52" y="629" type="qcurve" smooth="yes"/>
      <point x="48" y="629"/>
      <point x="48" y="641" type="qcurve" smooth="yes"/>
      <point x="48" y="654"/>
      <point x="52" y="658" type="qcurve"/>
      <point x="104" y="656"/>
    </contour>
  </outline>
</glyph>
