<?xml version="1.0" encoding="UTF-8"?>
<glyph name="ebreve" format="1">
  <advance width="430"/>
  <unicode hex="0115"/>
  <outline>
    <component base="breve" xOffset="-362" yOffset="-23"/>
    <component base="e"/>
  </outline>
</glyph>
