<?xml version="1.0" encoding="UTF-8"?>
<glyph name="exclam.ordn" format="1">
  <advance width="161"/>
  <outline>
    <contour>
      <point x="87" y="697" type="qcurve" smooth="yes"/>
      <point x="106" y="697"/>
      <point x="127" y="673"/>
      <point x="127" y="657" type="qcurve" smooth="yes"/>
      <point x="127" y="651"/>
      <point x="119" y="595"/>
      <point x="106" y="474"/>
      <point x="100" y="402" type="qcurve" smooth="yes"/>
      <point x="99" y="392"/>
      <point x="92" y="386"/>
      <point x="78" y="381" type="qcurve" smooth="yes"/>
      <point x="74" y="379"/>
      <point x="68" y="388"/>
      <point x="67" y="395" type="qcurve" smooth="yes"/>
      <point x="60" y="477"/>
      <point x="47" y="601"/>
      <point x="42" y="643"/>
      <point x="42" y="657" type="qcurve" smooth="yes"/>
      <point x="42" y="673"/>
      <point x="67" y="697"/>
    </contour>
    <contour>
      <point x="35" y="323"/>
      <point x="64" y="352"/>
      <point x="106" y="352"/>
      <point x="135" y="323"/>
      <point x="135" y="281"/>
      <point x="106" y="251"/>
      <point x="64" y="251"/>
      <point x="35" y="281"/>
    </contour>
  </outline>
</glyph>
