<?xml version="1.0" encoding="UTF-8"?>
<glyph name="J" format="1">
  <advance width="322"/>
  <unicode hex="004A"/>
  <outline>
    <contour>
      <point x="178" y="656" type="qcurve" smooth="yes"/>
      <point x="198" y="656"/>
      <point x="236" y="658"/>
      <point x="280" y="661"/>
      <point x="294" y="662" type="qcurve"/>
      <point x="296" y="656"/>
      <point x="296" y="647" type="qcurve" smooth="yes"/>
      <point x="296" y="633"/>
      <point x="292" y="633" type="qcurve" smooth="yes"/>
      <point x="282" y="633"/>
      <point x="230" y="619"/>
      <point x="228" y="612" type="qcurve" smooth="yes"/>
      <point x="219" y="577"/>
      <point x="219" y="519" type="qcurve" smooth="yes"/>
      <point x="219" y="85" type="line" smooth="yes"/>
      <point x="219" y="-41"/>
      <point x="78" y="-227"/>
      <point x="-31" y="-227" type="qcurve" smooth="yes"/>
      <point x="-42" y="-227"/>
      <point x="-68" y="-219"/>
      <point x="-76" y="-215" type="qcurve" smooth="yes"/>
      <point x="-83" y="-211" type="line"/>
      <point x="-95" y="-197"/>
      <point x="-95" y="-174" type="qcurve" smooth="yes"/>
      <point x="-95" y="-152"/>
      <point x="-58" y="-124"/>
      <point x="-33" y="-124" type="qcurve" smooth="yes"/>
      <point x="-15" y="-124"/>
      <point x="30" y="-167"/>
      <point x="43" y="-167" type="qcurve" smooth="yes"/>
      <point x="57" y="-167"/>
      <point x="86" y="-139"/>
      <point x="114" y="-85"/>
      <point x="132" y="14"/>
      <point x="132" y="77" type="qcurve" smooth="yes"/>
      <point x="132" y="523" type="line" smooth="yes"/>
      <point x="132" y="585"/>
      <point x="125" y="612" type="qcurve" smooth="yes"/>
      <point x="122" y="620"/>
      <point x="71" y="633"/>
      <point x="58" y="633" type="qcurve" smooth="yes"/>
      <point x="54" y="633"/>
      <point x="54" y="646" type="qcurve" smooth="yes"/>
      <point x="54" y="658"/>
      <point x="58" y="662" type="qcurve"/>
      <point x="71" y="661"/>
      <point x="151" y="656"/>
    </contour>
  </outline>
</glyph>
