<?xml version="1.0" encoding="UTF-8"?>
<glyph name="ncommaaccent.sc" format="1">
  <advance width="578"/>
  <outline>
    <component base="n.sc"/>
    <component base="uni0326" xOffset="199"/>
  </outline>
</glyph>
