<?xml version="1.0" encoding="UTF-8"?>
<glyph name="P" format="1">
  <advance width="545"/>
  <unicode hex="0050"/>
  <outline>
    <contour>
      <point x="164" y="656" type="line" smooth="yes"/>
      <point x="194" y="656"/>
      <point x="276" y="660"/>
      <point x="305" y="660" type="qcurve" smooth="yes"/>
      <point x="338" y="660"/>
      <point x="405" y="640"/>
      <point x="468" y="600"/>
      <point x="508" y="526"/>
      <point x="508" y="477" type="qcurve" smooth="yes"/>
      <point x="508" y="448"/>
      <point x="483" y="381"/>
      <point x="435" y="318"/>
      <point x="354" y="277"/>
      <point x="304" y="277" type="qcurve" smooth="yes"/>
      <point x="248" y="277"/>
      <point x="227" y="305" type="qcurve" smooth="yes"/>
      <point x="221" y="312"/>
      <point x="224" y="328" type="qcurve" smooth="yes"/>
      <point x="225" y="332"/>
      <point x="227" y="331" type="qcurve" smooth="yes"/>
      <point x="257" y="320"/>
      <point x="294" y="320" type="qcurve" smooth="yes"/>
      <point x="344" y="320"/>
      <point x="416" y="404"/>
      <point x="416" y="462" type="qcurve" smooth="yes"/>
      <point x="416" y="533"/>
      <point x="354" y="616"/>
      <point x="289" y="616" type="qcurve" smooth="yes"/>
      <point x="244" y="616"/>
      <point x="219" y="609" type="qcurve" smooth="yes"/>
      <point x="214" y="608"/>
      <point x="210" y="595"/>
      <point x="207" y="547"/>
      <point x="207" y="499" type="qcurve" smooth="yes"/>
      <point x="207" y="142" type="line" smooth="yes"/>
      <point x="207" y="75"/>
      <point x="215" y="55" type="qcurve" smooth="yes"/>
      <point x="220" y="42"/>
      <point x="281" y="26"/>
      <point x="294" y="26" type="qcurve" smooth="yes"/>
      <point x="298" y="26"/>
      <point x="298" y="12" type="qcurve" smooth="yes"/>
      <point x="298" y="3"/>
      <point x="296" y="-3" type="qcurve"/>
      <point x="196" y="2"/>
      <point x="166" y="2" type="qcurve"/>
      <point x="44" y="-3" type="line"/>
      <point x="41" y="0"/>
      <point x="41" y="15" type="qcurve" smooth="yes"/>
      <point x="41" y="28"/>
      <point x="44" y="28" type="qcurve" smooth="yes"/>
      <point x="58" y="28"/>
      <point x="108" y="40"/>
      <point x="113" y="49" type="qcurve" smooth="yes"/>
      <point x="120" y="61"/>
      <point x="120" y="143" type="qcurve" smooth="yes"/>
      <point x="120" y="521" type="line" smooth="yes"/>
      <point x="120" y="580"/>
      <point x="113" y="607" type="qcurve" smooth="yes"/>
      <point x="110" y="615"/>
      <point x="57" y="629"/>
      <point x="44" y="629" type="qcurve" smooth="yes"/>
      <point x="40" y="629"/>
      <point x="40" y="641" type="qcurve" smooth="yes"/>
      <point x="40" y="654"/>
      <point x="44" y="658" type="qcurve"/>
    </contour>
  </outline>
</glyph>
