<?xml version="1.0" encoding="UTF-8"?>
<glyph name="section.ssup" format="1">
  <advance width="246"/>
  <outline>
    <contour>
      <point x="226" y="590" type="qcurve" smooth="yes"/>
      <point x="226" y="539"/>
      <point x="187" y="514" type="qcurve"/>
      <point x="198" y="495"/>
      <point x="198" y="483" type="qcurve" smooth="yes"/>
      <point x="198" y="439"/>
      <point x="140" y="401"/>
      <point x="106" y="401" type="qcurve" smooth="yes"/>
      <point x="66" y="401"/>
      <point x="52" y="422" type="qcurve"/>
      <point x="52" y="424"/>
      <point x="49" y="434"/>
      <point x="49" y="435" type="qcurve" smooth="yes"/>
      <point x="49" y="461"/>
      <point x="71" y="461" type="qcurve" smooth="yes"/>
      <point x="79" y="461"/>
      <point x="112" y="430"/>
      <point x="127" y="430" type="qcurve" smooth="yes"/>
      <point x="165" y="430"/>
      <point x="165" y="466" type="qcurve" smooth="yes"/>
      <point x="165" y="489"/>
      <point x="135" y="520"/>
      <point x="92" y="539"/>
      <point x="50" y="561"/>
      <point x="20" y="607"/>
      <point x="20" y="642" type="qcurve" smooth="yes"/>
      <point x="20" y="688"/>
      <point x="59" y="719" type="qcurve"/>
      <point x="48" y="741"/>
      <point x="48" y="750" type="qcurve" smooth="yes"/>
      <point x="48" y="790"/>
      <point x="101" y="833"/>
      <point x="179" y="833"/>
      <point x="194" y="811" type="qcurve" smooth="yes"/>
      <point x="194" y="810"/>
      <point x="196" y="802"/>
      <point x="196" y="800" type="qcurve" smooth="yes"/>
      <point x="196" y="769"/>
      <point x="174" y="769" type="qcurve" smooth="yes"/>
      <point x="166" y="769"/>
      <point x="135" y="804"/>
      <point x="120" y="804" type="qcurve" smooth="yes"/>
      <point x="82" y="804"/>
      <point x="82" y="768" type="qcurve" smooth="yes"/>
      <point x="82" y="746"/>
      <point x="112" y="715"/>
      <point x="154" y="695"/>
      <point x="196" y="672"/>
      <point x="226" y="625"/>
    </contour>
    <contour>
      <point x="180" y="534" type="qcurve"/>
      <point x="196" y="552"/>
      <point x="196" y="566" type="qcurve" smooth="yes"/>
      <point x="196" y="597"/>
      <point x="147" y="636"/>
      <point x="80" y="675"/>
      <point x="67" y="698" type="qcurve"/>
      <point x="50" y="683"/>
      <point x="50" y="668" type="qcurve" smooth="yes"/>
      <point x="50" y="637"/>
      <point x="99" y="597"/>
      <point x="166" y="558"/>
    </contour>
  </outline>
</glyph>
