<?xml version="1.0" encoding="UTF-8"?>
<glyph name="uni01D1" format="1">
  <advance width="728"/>
  <unicode hex="01D1"/>
  <outline>
    <component base="O"/>
    <component base="uni030C.cap" xOffset="233"/>
  </outline>
</glyph>
