<?xml version="1.0" encoding="UTF-8"?>
<glyph name="uni0374" format="1">
  <advance width="234"/>
  <unicode hex="0374"/>
  <outline>
    <contour>
      <point x="189" y="695"/>
      <point x="208" y="679"/>
      <point x="208" y="674" type="qcurve" smooth="yes"/>
      <point x="208" y="645"/>
      <point x="91" y="505"/>
      <point x="75" y="501" type="qcurve"/>
      <point x="63" y="501"/>
      <point x="61" y="513" type="qcurve" smooth="yes"/>
      <point x="60" y="516"/>
      <point x="82" y="577"/>
      <point x="116" y="655"/>
      <point x="128" y="677" type="qcurve" smooth="yes"/>
      <point x="131" y="683"/>
      <point x="159" y="695"/>
    </contour>
  </outline>
</glyph>
