<?xml version="1.0" encoding="UTF-8"?>
<glyph name="uni0377" format="1">
  <advance width="531"/>
  <unicode hex="0377"/>
  <outline>
    <contour>
      <point x="426" y="433" type="qcurve"/>
      <point x="425" y="194" type="line" smooth="yes"/>
      <point x="425" y="117"/>
      <point x="444" y="68"/>
      <point x="468" y="68" type="qcurve" smooth="yes"/>
      <point x="481" y="68"/>
      <point x="505" y="89"/>
      <point x="510" y="98" type="qcurve"/>
      <point x="514" y="98"/>
      <point x="520" y="88" type="qcurve" smooth="yes"/>
      <point x="523" y="82"/>
      <point x="523" y="77" type="qcurve"/>
      <point x="513" y="43"/>
      <point x="462" y="-3"/>
      <point x="430" y="-3" type="qcurve" smooth="yes"/>
      <point x="348" y="-2"/>
      <point x="348" y="127" type="qcurve" smooth="yes"/>
      <point x="348" y="307" type="line"/>
      <point x="147" y="-8" type="line"/>
      <point x="120" y="-8"/>
      <point x="97" y="-9" type="qcurve"/>
      <point x="104" y="20"/>
      <point x="104" y="61" type="qcurve" smooth="yes"/>
      <point x="104" y="305" type="line" smooth="yes"/>
      <point x="104" y="343"/>
      <point x="90" y="359" type="qcurve" smooth="yes"/>
      <point x="80" y="370"/>
      <point x="51" y="379"/>
      <point x="32" y="380"/>
      <point x="32" y="382" type="qcurve" smooth="yes"/>
      <point x="32" y="405"/>
      <point x="38" y="406" type="qcurve" smooth="yes"/>
      <point x="130" y="420"/>
      <point x="181" y="434" type="qcurve" smooth="yes"/>
      <point x="184" y="435"/>
      <point x="187" y="426"/>
      <point x="187" y="420" type="qcurve" smooth="yes"/>
      <point x="187" y="417"/>
      <point x="181" y="373"/>
      <point x="181" y="341" type="qcurve" smooth="yes"/>
      <point x="181" y="122" type="line"/>
      <point x="377" y="432" type="line"/>
      <point x="400" y="429"/>
    </contour>
  </outline>
</glyph>
