<?xml version="1.0" encoding="UTF-8"?>
<glyph name="uni1E93" format="1">
  <advance width="414"/>
  <unicode hex="1E93"/>
  <outline>
    <component base="uni0323" xOffset="74" yOffset="-29"/>
    <component base="z"/>
  </outline>
</glyph>
