<?xml version="1.0" encoding="UTF-8"?>
<glyph name="uni1F9F" format="1">
  <advance width="941"/>
  <unicode hex="1F9F"/>
  <outline>
    <component base="uni1F2F"/>
    <component base="uni1FBE" xOffset="526" yOffset="4"/>
  </outline>
</glyph>
