<?xml version="1.0" encoding="UTF-8"?>
<glyph name="uni1E3C" format="1">
  <advance width="568"/>
  <unicode hex="1E3C"/>
  <outline>
    <component base="L"/>
    <component base="circumflex" xOffset="-328" yOffset="-706"/>
  </outline>
</glyph>
