<?xml version="1.0" encoding="UTF-8"?>
<glyph name="uni1EE3" format="1">
  <advance width="546"/>
  <unicode hex="1EE3"/>
  <outline>
    <component base="ohorn"/>
    <component base="uni0323" xOffset="103" yOffset="-36"/>
  </outline>
</glyph>
