<?xml version="1.0" encoding="UTF-8"?>
<glyph name="uni1E72" format="1">
  <advance width="719"/>
  <unicode hex="1E72"/>
  <outline>
    <component base="U"/>
    <component base="dieresis" xOffset="194" yOffset="-627"/>
  </outline>
</glyph>
