<?xml version="1.0" encoding="UTF-8"?>
<glyph name="uni1EB0" format="1">
  <advance width="684"/>
  <unicode hex="1EB0"/>
  <outline>
    <contour>
      <point x="413" y="803" type="qcurve" smooth="yes"/>
      <point x="413" y="798"/>
      <point x="406" y="790"/>
      <point x="401" y="790" type="qcurve" smooth="yes"/>
      <point x="391" y="790"/>
      <point x="266" y="856"/>
      <point x="266" y="868" type="qcurve" smooth="yes"/>
      <point x="266" y="878"/>
      <point x="292" y="891"/>
      <point x="311" y="891" type="qcurve" smooth="yes"/>
      <point x="323" y="891"/>
      <point x="327" y="888" type="qcurve" smooth="yes"/>
      <point x="342" y="877"/>
      <point x="384" y="837"/>
      <point x="413" y="805"/>
    </contour>
    <contour>
      <point x="392" y="746"/>
      <point x="443" y="775"/>
      <point x="451" y="802" type="qcurve" smooth="yes"/>
      <point x="451" y="804"/>
      <point x="461" y="804"/>
      <point x="476" y="796"/>
      <point x="476" y="793" type="qcurve" smooth="yes"/>
      <point x="476" y="790" type="line"/>
      <point x="475" y="788"/>
      <point x="475" y="787" type="qcurve" smooth="yes"/>
      <point x="467" y="753"/>
      <point x="399" y="700"/>
      <point x="356" y="700" type="qcurve" smooth="yes"/>
      <point x="312" y="700"/>
      <point x="245" y="751"/>
      <point x="237" y="788" type="qcurve" smooth="yes"/>
      <point x="237" y="789"/>
      <point x="236" y="791" type="qcurve"/>
      <point x="236" y="793" type="line" smooth="yes"/>
      <point x="236" y="796"/>
      <point x="251" y="804"/>
      <point x="261" y="804"/>
      <point x="261" y="802" type="qcurve" smooth="yes"/>
      <point x="269" y="775"/>
      <point x="320" y="746"/>
    </contour>
    <contour>
      <point x="365" y="660" type="line"/>
      <point x="565" y="132" type="line" smooth="yes"/>
      <point x="583" y="85"/>
      <point x="594" y="60" type="qcurve" smooth="yes"/>
      <point x="600" y="45"/>
      <point x="650" y="26"/>
      <point x="662" y="26" type="qcurve" smooth="yes"/>
      <point x="666" y="26"/>
      <point x="666" y="7" type="qcurve" smooth="yes"/>
      <point x="666" y="3"/>
      <point x="664" y="-3" type="qcurve"/>
      <point x="564" y="2"/>
      <point x="554" y="2" type="qcurve" smooth="yes"/>
      <point x="553" y="2"/>
      <point x="438" y="-3" type="qcurve"/>
      <point x="434" y="1"/>
      <point x="435" y="26"/>
      <point x="439" y="26" type="qcurve" smooth="yes"/>
      <point x="451" y="26"/>
      <point x="487" y="36"/>
      <point x="490" y="44" type="qcurve" smooth="yes"/>
      <point x="492" y="52"/>
      <point x="492" y="60" type="qcurve" smooth="yes"/>
      <point x="492" y="73"/>
      <point x="485" y="108"/>
      <point x="482" y="118" type="qcurve" smooth="yes"/>
      <point x="478" y="129" type="line"/>
      <point x="437" y="242" type="line"/>
      <point x="434" y="246"/>
      <point x="431" y="246" type="qcurve" smooth="yes"/>
      <point x="392" y="249"/>
      <point x="355" y="249" type="qcurve" smooth="yes"/>
      <point x="303" y="249"/>
      <point x="228" y="244" type="qcurve"/>
      <point x="223" y="241" type="line"/>
      <point x="180" y="131" type="line"/>
      <point x="163" y="81"/>
      <point x="163" y="62" type="qcurve" smooth="yes"/>
      <point x="163" y="48"/>
      <point x="171" y="42" type="qcurve" smooth="yes"/>
      <point x="180" y="35"/>
      <point x="220" y="26"/>
      <point x="229" y="26" type="qcurve" smooth="yes"/>
      <point x="232" y="26"/>
      <point x="233" y="2"/>
      <point x="231" y="-3" type="qcurve"/>
      <point x="131" y="2"/>
      <point x="128" y="2" type="qcurve" smooth="yes"/>
      <point x="108" y="2"/>
      <point x="78" y="0"/>
      <point x="41" y="-2"/>
      <point x="24" y="-3" type="qcurve"/>
      <point x="20" y="1"/>
      <point x="20" y="12" type="qcurve" smooth="yes"/>
      <point x="20" y="26"/>
      <point x="24" y="26" type="qcurve" smooth="yes"/>
      <point x="36" y="26"/>
      <point x="74" y="36"/>
      <point x="81" y="45" type="qcurve" smooth="yes"/>
      <point x="102" y="72"/>
      <point x="128" y="139" type="qcurve" smooth="yes"/>
      <point x="302" y="586" type="line" smooth="yes"/>
      <point x="304" y="591"/>
      <point x="311" y="613"/>
      <point x="315" y="624"/>
      <point x="323" y="641"/>
      <point x="329" y="649"/>
      <point x="338" y="659"/>
      <point x="349" y="663"/>
      <point x="356" y="663" type="qcurve"/>
    </contour>
    <contour>
      <point x="249" y="299" type="qcurve" smooth="yes"/>
      <point x="301" y="297"/>
      <point x="320" y="297" type="qcurve" smooth="yes"/>
      <point x="364" y="297"/>
      <point x="411" y="300" type="qcurve"/>
      <point x="414" y="305" type="line"/>
      <point x="333" y="526" type="line"/>
      <point x="247" y="303" type="line"/>
      <point x="247" y="299"/>
    </contour>
  </outline>
</glyph>
