<?xml version="1.0" encoding="UTF-8"?>
<glyph name="uni1F03" format="1">
  <advance width="497"/>
  <unicode hex="1F03"/>
  <outline>
    <component base="alpha"/>
    <component base="uni1FDD" xOffset="24" yOffset="6"/>
  </outline>
</glyph>
