<?xml version="1.0" encoding="UTF-8"?>
<glyph name="uni1F09" format="1">
  <advance width="684"/>
  <unicode hex="1F09"/>
  <outline>
    <component base="Alpha"/>
    <component base="uni0314" xOffset="-112" yOffset="-13"/>
  </outline>
</glyph>
