<?xml version="1.0" encoding="UTF-8"?>
<glyph name="uni1FD1" format="1">
  <advance width="222"/>
  <unicode hex="1FD1"/>
  <outline>
    <component base="iota" xOffset="30"/>
    <component base="uni0304" xOffset="-49" yOffset="-52"/>
  </outline>
</glyph>
