<?xml version="1.0" encoding="UTF-8"?>
<glyph name="uni1FDA" format="1">
  <advance width="398"/>
  <unicode hex="1FDA"/>
  <outline>
    <component base="Iota" xOffset="86"/>
    <component base="uni1FEF" xOffset="-222" yOffset="-37"/>
  </outline>
</glyph>
