<?xml version="1.0" encoding="UTF-8"?>
<glyph name="z" format="1">
  <advance width="414"/>
  <unicode hex="007A"/>
  <outline>
    <contour>
      <point x="135" y="47" type="qcurve" smooth="yes"/>
      <point x="135" y="40"/>
      <point x="147" y="40" type="qcurve" smooth="yes"/>
      <point x="278" y="40" type="line" smooth="yes"/>
      <point x="320" y="40"/>
      <point x="359" y="82"/>
      <point x="370" y="120" type="qcurve"/>
      <point x="372" y="131"/>
      <point x="378" y="131" type="qcurve" smooth="yes"/>
      <point x="400" y="131"/>
      <point x="407" y="119" type="qcurve"/>
      <point x="386" y="0" type="line"/>
      <point x="49" y="0" type="line"/>
      <point x="29" y="12"/>
      <point x="29" y="23" type="qcurve" smooth="yes"/>
      <point x="29" y="26"/>
      <point x="30" y="27" type="qcurve" smooth="yes"/>
      <point x="287" y="384" type="line"/>
      <point x="138" y="385" type="line" smooth="yes"/>
      <point x="118" y="385"/>
      <point x="92" y="366"/>
      <point x="83" y="346"/>
      <point x="74" y="315"/>
      <point x="73" y="312" type="qcurve" smooth="yes"/>
      <point x="70" y="306"/>
      <point x="49" y="306" type="qcurve" smooth="yes"/>
      <point x="38" y="306"/>
      <point x="38" y="309" type="qcurve" smooth="yes"/>
      <point x="38" y="313"/>
      <point x="52" y="400"/>
      <point x="54" y="430" type="qcurve"/>
      <point x="113" y="424"/>
      <point x="149" y="424" type="qcurve" smooth="yes"/>
      <point x="271" y="424" type="line" smooth="yes"/>
      <point x="327" y="424"/>
      <point x="393" y="432" type="qcurve"/>
      <point x="396" y="427"/>
      <point x="396" y="408" type="qcurve"/>
      <point x="142" y="61" type="line" smooth="yes"/>
      <point x="135" y="51"/>
    </contour>
  </outline>
</glyph>
